<?xml version="1.0" standalone="no"?>
<!DOCTYPE svg PUBLIC "-//W3C//DTD SVG 20010904//EN"
 "http://www.w3.org/TR/2001/REC-SVG-20010904/DTD/svg10.dtd">
<svg version="1.0" xmlns="http://www.w3.org/2000/svg"
 width="684.000000pt" height="684.000000pt" viewBox="0 0 684.000000 684.000000"
 preserveAspectRatio="xMidYMid meet">
<metadata>
Created by potrace 1.14, written by Peter Selinger 2001-2017
</metadata>
<g transform="translate(0.000000,684.000000) scale(0.100000,-0.100000)"
fill="#000000" stroke="none">
<path d="M1940 6562 c0 -4 -30 -8 -68 -9 -70 -1 -148 -9 -194 -19 -15 -3 -39
-7 -55 -9 -85 -11 -258 -63 -393 -118 -75 -31 -261 -124 -270 -136 -3 -3 -22
-15 -44 -26 -21 -11 -40 -26 -43 -32 -3 -7 -9 -13 -14 -13 -13 0 -99 -63 -99
-72 0 -4 -4 -8 -9 -8 -21 0 -227 -199 -296 -285 -22 -28 -43 -51 -47 -53 -5
-2 -8 -10 -8 -17 0 -7 -4 -15 -8 -17 -13 -5 -107 -146 -142 -213 -17 -33 -35
-64 -39 -70 -16 -21 -80 -175 -73 -175 4 0 2 -4 -3 -8 -6 -4 -16 -25 -23 -47
-36 -116 -71 -244 -77 -279 -3 -21 -7 -48 -10 -60 -3 -12 -8 -34 -11 -51 -4
-16 -8 -133 -10 -260 -2 -260 10 -365 68 -570 11 -38 20 -71 19 -73 -1 -1 6
-16 14 -32 8 -16 15 -32 14 -35 -1 -10 36 -100 73 -178 21 -43 38 -82 38 -86
0 -5 3 -11 8 -13 9 -4 41 -57 49 -80 3 -10 9 -18 14 -18 5 0 9 -4 9 -10 0 -8
56 -97 70 -110 3 -3 30 -36 59 -75 30 -38 710 -727 1512 -1529 l1459 -1459
1465 1465 c806 806 1465 1469 1465 1472 0 4 10 17 23 30 12 12 31 35 42 50 11
16 34 47 51 70 71 96 234 399 234 436 0 6 4 18 10 28 8 13 51 150 55 172 1 3
4 14 8 25 3 11 9 32 12 48 3 15 8 39 11 55 9 43 19 113 30 217 14 130 3 393
-21 515 -3 14 -8 39 -10 55 -15 82 -71 270 -108 359 -22 54 -116 240 -144 287
-43 70 -141 205 -177 244 -19 19 -31 35 -28 35 5 0 -160 162 -210 206 -12 11
-54 44 -93 72 -38 29 -75 57 -82 62 -7 6 -16 10 -21 10 -5 0 -17 9 -27 20 -10
11 -24 20 -30 20 -7 0 -18 7 -25 15 -7 9 -15 13 -18 11 -3 -3 -17 3 -31 13
-95 65 -378 175 -510 197 -14 3 -34 7 -43 10 -10 3 -29 7 -43 10 -14 2 -37 6
-52 9 -38 8 -103 14 -193 20 -41 2 -77 5 -80 6 -3 1 -9 1 -13 0 -5 -1 -61 -3
-125 -6 -107 -3 -153 -8 -222 -21 -14 -3 -38 -7 -55 -9 -16 -3 -54 -10 -82
-16 -29 -5 -55 -10 -58 -9 -3 0 -19 -7 -35 -15 -17 -9 -30 -13 -30 -10 0 2
-44 -11 -97 -30 -163 -59 -357 -160 -479 -250 -23 -16 -55 -39 -70 -50 -28
-20 -78 -63 -167 -144 l-26 -24 -58 53 c-68 62 -231 190 -253 198 -8 3 -17 8
-20 12 -3 3 -36 24 -75 47 -148 88 -370 178 -525 214 -25 6 -54 13 -65 15 -95
22 -174 31 -330 39 -66 3 -126 8 -132 10 -7 2 -13 1 -13 -3z"/>
</g>
</svg>
